{
	"info": {
		"_postman_id": "ea0bb97c-451f-4fb8-b275-e7f8da108cad",
		"name": "Geodan-CoolDist",
		"schema": "https://schema.getpostman.com/json/collection/v2.1.0/collection.json",
		"_exporter_id": "8707779"
	},
	"item": [
		{
			"name": "Get daily workload by distributor",
			"protocolProfileBehavior": {
				"disableBodyPruning": true
			},
			"request": {
				"method": "GET",
				"header": [],
				"body": {
					"mode": "raw",
					"raw": "",
					"options": {
						"raw": {
							"language": "json"
						}
					}
				},
				"url": {
					"raw": "http://localhost:3000/v1/orders?refid=3&date=20-07-2023&limit=10&page=1",
					"protocol": "http",
					"host": [
						"localhost"
					],
					"port": "3000",
					"path": [
						"v1",
						"orders"
					],
					"query": [
						{
							"key": "refid",
							"value": "3"
						},
						{
							"key": "date",
							"value": "20-07-2023"
						},
						{
							"key": "limit",
							"value": "10"
						},
						{
							"key": "page",
							"value": "1"
						}
					]
				}
			},
			"response": []
		},
		{
			"name": "Find nearest orders distributors",
			"request": {
				"method": "POST",
				"header": [],
				"url": {
					"raw": "http://localhost:3000/v1/orders?quantity=1",
					"protocol": "http",
					"host": [
						"localhost"
					],
					"port": "3000",
					"path": [
						"v1",
						"orders"
					],
					"query": [
						{
							"key": "quantity",
							"value": "1"
						}
					]
				}
			},
			"response": []
		}
	]
}